8 Variablen auswählen – Hands-On Exploratory Data Analytics
…
Wie nutzt ihr Auswahl Helfer wie starts_with() oder contains(), damit eure Auswahl flexibel bleibt?

Wie wählt ihr Spalten dynamisch aus, zum Beispiel aus einem Vektor oder nach Datentyp?

8.1 Das Grundprinzip

select() nimmt einen Tibble und gibt einen Tibble zurück. Nur die Spalten ändern sich.

Die einfachste Form ist die Auswahl einzelner Spalten:

tweets |>
  select(screen_name)

# A tibble: 58,421 × 1
   screen_name 
   <chr>       
 1 cem_oezdemir
 2 W_Schmidt_  
 3 lisapaus    
 4 lisapaus    
 5 Wissing     
 6 Wissing     
 7 Wissing     
 8 c_lindner   
 9 lisapaus    
10 lisapaus    
# ℹ 58,411 more rows

Mehrere Spalten schreibt ihr einfach hintereinander:

tweets |>
  select(screen_name, retweet_count, favorite_count)

# A tibble: 58,421 × 3
   screen_name  retweet_count favorite_count
   <chr>                <dbl>          <dbl>
 1 cem_oezdemir            23              0
 2 W_Schmidt_           10659              0
 3 lisapaus                 1              3
 4 lisapaus                 1             11
 5 Wissing                  6             25
 6 Wissing                  9             93
 7 Wissing                 15            154
 8 c_lindner               56            448
 9 lisapaus                29              0
10 lisapaus                 1              1
# ℹ 58,411 more rows
…
