4 Datenrepräsentation – Hands-On Exploratory Data Analytics
…
Schaut euch die Ausgabe genau an. Wenn ein Data Frame viele Zeilen hat, zeigt R alle an. Bei einem Datensatz mit zehntausenden Beobachtungen überflutet das eure Konsole. Außerdem wandelt data.frame() Textspalten manchmal automatisch in Faktoren um, was zu unerwarteten Ergebnissen führen kann.

Es gibt also Raum für Verbesserungen. Und genau hier kommen Tibbles ins Spiel.

4.7 Tibbles

Tibbles sind die moderne Version des Data Frames. Sie kommen aus dem Tidyverse und sind so gebaut, dass sie im Arbeitsalltag angenehmer und sicherer sind. Alles, was ein Data Frame kann, kann auch ein Tibble. Aber ein Tibble macht ein paar Dinge cleverer.

Was ist anders?

Schauen wir uns den Unterschied direkt an. Wir laden den Tweets-Datensatz als Tibble:

tweets

# A tibble: 58,421 × 22
   id             screen_name text  retweet_count favorite_count is_quote_status
   <chr>          <chr>       <chr>         <dbl>          <dbl> <lgl>          
 1 1642251945732… cem_oezdem… "RT …            23              0 FALSE          
 2 1642416819003… W_Schmidt_  "RT …         10659              0 FALSE          
 3 1642082629796… lisapaus    "@Ha…             1              3 FALSE          
 4 1642090111700… lisapaus    "@an…             1             11 FALSE          
 5 1642532741366… Wissing     "\U0…             6             25 FALSE          
 6 1642532736740… Wissing     "Wir…             9             93 FALSE          
 7 1642463874896… Wissing     "Wes…            15            154 FALSE          
 8 1642411368216… c_lindner   "202…            56            448 TRUE           
 9 1643126817555… lisapaus    "RT …            29              0 FALSE          
10 1643018993815… lisapaus    "@SB…             1              1 FALSE          
# ℹ 58,411 more rows
# ℹ 16 more variables: is_retweet <lgl>, retweeted_status_id <chr>,
#   retweeted_user <chr>, lang <chr>, hashtags <list>, urls <list>,
#   user_mentions <list>, photos <list>, source <chr>, insert_timestamp <chr>,
#   created_at <dttm>, quote_count <dbl>, reply_count <dbl>,
#   in_reply_to_screen_name <chr>, in_reply_to_status_id <chr>,
#   quoted_status_id <chr>
…
