4 Faktoren – Hands-On Exploratory Data Analytics
…
Kleine n_distinct (z.B. language) → sehr gute Kandidaten für Faktoren.

Große n_distinct (z.B. title, url) → eher Identifikatoren/Free-Text, meistens kein Faktor.

4.2 Häufigkeiten: Ressorts zählen und visualisieren

Bei News-Daten ist ressort meist eine der wichtigsten Kategorien.

# Häufigkeitstabelle
ressort_counts <- ts |>
  count(ressort, sort = TRUE)

ressort_counts

# A tibble: 39 × 2
   ressort          n
   <chr>        <int>
 1 ausland      22675
 2 wirtschaft   15935
 3 inland       13463
 4 wissen        2045
 5 faktenfinder  1059
 6 investigativ  1042
 7 newsticker    1021
 8 multimedia     650
 9 kommentar      468
10 kultur         340
# ℹ 29 more rows
…
Beispiel: Welche Ressorts haben im Median die längsten Texte (über word_count)?

ressort_wordcount <- ts |>
  filter(!is.na(ressort), !is.na(word_count)) |>
  group_by(ressort) |>
  summarise(
    n = n(),
    median_word_count = median(word_count),
    .groups = "drop"
  ) |>
  arrange(desc(median_word_count))

ressort_wordcount

# A tibble: 32 × 3
   ressort                                   n median_word_count
   <chr>                                 <int>             <dbl>
 1 incels                                    1             2589 
 2 newsticker                             1021             1987 
 3 geschichte                                1             1451 
 4 ueber-uns                                 2             1010.
 5 fussball                                  4              864.
 6 ratgeber                                  2              820.
 7 investigativ                           1042              804.
 8 faktenfinder                           1059              754 
 9 news                                      8              678.
10 Einstellungen einblenden Pfeil rechts   210              657 
# ℹ 22 more rows
…
Wenn du Kategorien zusammenführen möchtest (z.B. Synonyme), hilft fct_recode():

# Beispiel-Recode (nur als Muster; passe Mapping bei Bedarf an deine Daten an)

ts |>
  mutate(
    ressort = fct_recode(
      ressort,
      inland = "inland",
      ausland = "ausland"
    )
  ) |>
  count(ressort, sort = TRUE)

# A tibble: 39 × 2
   ressort          n
   <fct>        <int>
 1 ausland      22675
 2 wirtschaft   15935
 3 inland       13463
 4 wissen        2045
 5 faktenfinder  1059
 6 investigativ  1042
 7 newsticker    1021
 8 multimedia     650
 9 kommentar      468
10 kultur         340
# ℹ 29 more rows
…
