25 Variablen – Hands-On Exploratory Data Analytics
…
ts |>
  summarise(
    across(
      everything(),
      list(n_missing = ~ sum(is.na(.x)), pct_missing = ~ mean(is.na(.x))),
      .names = "{.col}__{.fn}"
    )
  ) |>
  pivot_longer(everything(), names_to = "metric", values_to = "value") |>
  separate(metric, into = c("variable", "metric"), sep = "__") |>
  pivot_wider(names_from = metric, values_from = value) |>
  arrange(desc(pct_missing))

# A tibble: 21 × 3
   variable       n_missing pct_missing
   <chr>              <dbl>       <dbl>
 1 image_captions     49446     0.831  
 2 related_links      42196     0.709  
 3 tag                32797     0.551  
 4 author             16625     0.279  
 5 image_urls          6140     0.103  
 6 keywords             638     0.0107 
 7 date_modified        627     0.0105 
 8 paragraphs           323     0.00543
 9 text                 323     0.00543
10 word_count           323     0.00543
# ℹ 11 more rows
…
Wenn du wissen willst, welche Datensätze dahinterstehen, kannst du dir einzelne Fälle anzeigen lassen. Das ist ein typischer Debugging-Schritt in der Datenbereinigung:

ts |>
  add_count(url, name = "n_url") |>
  filter(!is.na(url), n_url > 1) |>
  select(url, date_time, ressort, title, n_url) |>
  arrange(desc(n_url), url, date_time)

# A tibble: 78 × 5
   url                                   date_time           ressort title n_url
   <chr>                                 <dttm>              <chr>   <chr> <int>
 1 https://www.tagesschau.de/multimedia… 2023-04-25 11:15:00 multim… 11KM…    53
 2 https://www.tagesschau.de/multimedia… 2023-05-30 05:46:00 multim… 11KM…    53
 3 https://www.tagesschau.de/multimedia… 2023-06-28 05:14:00 multim… 11KM…    53
 4 https://www.tagesschau.de/multimedia… 2023-07-07 07:07:00 multim… 11KM…    53
 5 https://www.tagesschau.de/multimedia… 2023-09-26 09:14:00 multim… 11KM…    53
 6 https://www.tagesschau.de/multimedia… 2023-10-19 09:02:00 multim… 11KM…    53
 7 https://www.tagesschau.de/multimedia… 2023-11-30 08:58:00 multim… 11KM…    53
 8 https://www.tagesschau.de/multimedia… 2023-12-19 08:22:00 multim… 11KM…    53
 9 https://www.tagesschau.de/multimedia… 2024-01-31 07:04:00 multim… 11KM…    53
10 https://www.tagesschau.de/multimedia… 2024-02-28 06:29:00 multim… 11KM…    53
# ℹ 68 more rows
…
