27 Variablen sichten – Hands-On Exploratory Data Analytics
…
Die gruppierte Betrachtung von Variablen

Die Betrachtung von Zusammenhängen zwischen Variablen

27.1 Beschreibung der Stichprobe

In diesem Kontext meinen wir mit der Stichprobe die uns vorliegenden Daten. Unsere Analyse bezieht sich auf alles, was wir aus den Daten heraus finden können. Wir grenzen an dieser Stelle die Kontextinformationen, also “Wer wurde befragt?”, “Wann wurde die Erhebung durchgeführt?” oder “Wer ist der Autor der Studie” bewusst aus. Schließlich können wir diese Dinge nicht mit R ermitteln.

Umfang der Stichprobe

Die wichtigsten Informationen zu einem Datensatz bekommen wir, wenn wir einfach den Namen des Objekts in der Konsole eingeben:

survey

# A tibble: 2,811 × 813
   q001hheinkauf q002geburt q003land q004geschlecht q005os v041nofleisch
           <dbl>      <dbl>    <dbl>          <dbl>  <dbl>         <dbl>
 1             2       1970        1              1      0             0
 2             1       1990        7              1      0             0
 3             2       1963        6              1      0             0
 4             2       1989       13              2      0             1
 5             2       1965        4              1      0             1
 6             2       1957        2              1      0             0
 7             2       1960       14              2      0             1
 8             2       1984       13              1      0             0
 9             2       1974        1              2      0             0
10             2       1954       13              2      0             0
# ℹ 2,801 more rows
# ℹ 807 more variables: v041nofleisch_other <chr>, v041diaet_0nodiaet <dbl>,
#   v041diaet_1lowcarb <dbl>, v041diaet_2laktose <dbl>,
#   v041diaet_3gluten <dbl>, v041diaet_4paleo <dbl>, v041diaet_5ketogen <dbl>,
#   v041diaet_6rohkost <dbl>, v041diaet_7makro <dbl>, v041diaet_8trenn <dbl>,
#   v041diaet_9frutarisch <dbl>, v041diaet_10fleisch <dbl>,
#   v041diaet_11mediterran <dbl>, v041diaet_12histaminarm <dbl>, …
…
Die Funktion glimpse ist hilfreich, um einen schnellen Überblick über die Variablennamen, deren Datentypen und erste Werte zu bekommen. Allerdings stößt die Funktion bei einem Datensatz mit sehr vielen Variablen an ihre Grenzen, weil sie alle in der Konsole auflistet. Bei 813 Variablen überfrachtet das die Konsole:

survey |> 
    glimpse()

# Erzeugt sehr viele Zeilen auf der Konsole...

Es wäre vielleicht besser, wir könnten eine aggregierte Sicht bekommen, um die Häufigkeiten der ermittelten Datentypen schnell zu sichten. Dazu können wir folgenden Befehl verwenden:

survey |> 
  map_df(type_sum) |> 
  pivot_longer(everything(), names_to = "variable", values_to = "type")

# A tibble: 813 × 2
   variable            type 
   <chr>               <chr>
 1 q001hheinkauf       dbl  
 2 q002geburt          dbl  
 3 q003land            dbl  
 4 q004geschlecht      dbl  
 5 q005os              dbl  
 6 v041nofleisch       dbl  
 7 v041nofleisch_other chr  
 8 v041diaet_0nodiaet  dbl  
 9 v041diaet_1lowcarb  dbl  
10 v041diaet_2laktose  dbl  
# ℹ 803 more rows
…
Neben den Werten von 0 bis 4 sind auch NA-Werte zu seehen. Diese bedeutet, dass hier keine der Optionen gewählt wurde und stattdessen ein Wert für “Sonstiges” angegeben wurde, in Form vo Freitext. Diese Freitexte können wir ebenfalls betrachten:

survey |> 
  select(v041nofleisch, v041nofleisch_other) |>
  filter(is.na(v041nofleisch))  

# A tibble: 28 × 2
   v041nofleisch v041nofleisch_other                                            
           <dbl> <chr>                                                          
 1            NA alles was schmeckt                                             
 2            NA leichte Einschränkung des Fleischkonsums und fast ausschließli…
 3            NA ich versuche mein Fleisch Konsum einzuschränken, dies fällt mi…
 4            NA normal                                                         
 5            NA wenig Fleisch und Fisch, aber nicht explizit vegetarisch       
 6            NA wenig Fleisch                                                  
 7            NA um 50% reduzierter Fleischkonsum                               
 8            NA Fleischverbrauch eingeschränkt                                 
 9            NA Ganz normal wie es normale Menschen so machen                  
10            NA Kein Schwein                                                   
# ℹ 18 more rows

Abgesehen von den Freitexten für “Sonstiges” liegt also auch anhand der Daten eine feste Liste an Werten (Kategorien) vor, so dass wir in jedem Fall mindestens eine Nominalskala vorliegen haben. Erfüllt die Variable auch die Anforderungen für das nächst höhere Skalenniveau, die Ordinalskala?

Dazu müssten die Kategorien nicht nur klar abgrenzbar sein, sondern auch in einer Reihenfolge zueinander stehen. Die Frage nach einer Reihenfolge kann nicht anhand der Daten beantwortet werden, sondern muss aus dem Wissen und der Theorie hinter dem abgefragten Sachverhalt abgeleitet werden. Ist die Antwort “ohne Einschränkungen des Fleischkonsums” besser oder schlechter, größer oder keiner als “flexitarisch” oder “vegetarisch”? Möglich wäre das, wenn man den Anteil an tierischen Produkten betrachten möchte, der mit jeder Ernährungsweise verbunden ist. Dann wäre dieser bei “keine Einschränkung” größer als bei “flexitarisch”, und bei “flexitarisch” wiederum größer als bei “vegetarisch” usw. Es ist aber anhand der Frage nicht klar, dass das die Intention war. Zudem kann das auch nicht für alle Kategorien trennscharf bestimmt werden (isst ein Flexitarier mehr oder weniger Tier als ein Pescetarier?). Wir gehen deshalb von einem nominalskalierten Merkmal aus.

Passt also der Datentyp dbl zum gewünschten Datentyp einer nominalskalierten Variable? Tabelle Tabelle 27.1 gibt uns die klare Antwort “Nein”. Wir sollten die Variable in einen Faktor (fct) umwandeln:

survey |> 
  mutate(v041nofleisch_fct = 
    as_factor(v041nofleisch), .keep = "used"
  )

# A tibble: 2,811 × 2
   v041nofleisch v041nofleisch_fct
           <dbl> <fct>            
 1             0 0                
 2             0 0                
 3             0 0                
 4             1 1                
 5             1 1                
 6             0 0                
 7             1 1                
 8             0 0                
 9             0 0                
10             0 0                
# ℹ 2,801 more rows
…
