21 Umfragedaten – Hands-On Exploratory Data Analytics
…
1

Der Befehl count() zählt die Beobachtungen (Zeilen) in einem Datensatz.

# A tibble: 1 × 1
      n
  <int>
1  2811

Eine zweite, oft sehr praktische Möglichkeit ist: Gebt einfach den Namen des Tibbles aus. Tibbles zeigen euch direkt eine kompakte Zusammenfassung inkl. Dimensionen (Zeilen x Spalten) und eine Vorschau.

survey

# A tibble: 2,811 × 813
   q001hheinkauf q002geburt q003land q004geschlecht q005os v041nofleisch
           <dbl>      <dbl>    <dbl>          <dbl>  <dbl>         <dbl>
 1             2       1970        1              1      0             0
 2             1       1990        7              1      0             0
 3             2       1963        6              1      0             0
 4             2       1989       13              2      0             1
 5             2       1965        4              1      0             1
 6             2       1957        2              1      0             0
 7             2       1960       14              2      0             1
 8             2       1984       13              1      0             0
 9             2       1974        1              2      0             0
10             2       1954       13              2      0             0
# ℹ 2,801 more rows
# ℹ 807 more variables: v041nofleisch_other <chr>, v041diaet_0nodiaet <dbl>,
#   v041diaet_1lowcarb <dbl>, v041diaet_2laktose <dbl>,
#   v041diaet_3gluten <dbl>, v041diaet_4paleo <dbl>, v041diaet_5ketogen <dbl>,
#   v041diaet_6rohkost <dbl>, v041diaet_7makro <dbl>, v041diaet_8trenn <dbl>,
#   v041diaet_9frutarisch <dbl>, v041diaet_10fleisch <dbl>,
#   v041diaet_11mediterran <dbl>, v041diaet_12histaminarm <dbl>, …
…
Hier steckt direkt ein wichtiges Muster drin: Wir bauen eine kleine „Befehlskette“. Das etwas merkwürdig aussehende Symbol |> (Pipe) sorgt dafür, dass das Ergebnis links an den nächsten Befehl rechts übergeben wird. Eine dedizierte Einführung in die Pipe findet ihr in Kapitel 6.

Mit der Flexibilität einer Programmiersprache wie R könnt ihr jede beliebige Menge an Spalten auswählen – zum Beispiel auch die letzten 10:

survey |>
  select(tail(everything(), 10))

# A tibble: 2,811 × 10
   M070handeldiff3_1hochwertig M070handeldiff3_2regio M070handeldiff3_3preis
                         <dbl>                  <dbl>                  <dbl>
 1                          NA                     NA                     NA
 2                          -1                      1                      2
 3                          NA                     NA                     NA
 4                          NA                     NA                     NA
 5                          NA                     NA                     NA
 6                          NA                     NA                     NA
 7                          NA                     NA                     NA
 8                          NA                     NA                     NA
 9                           2                      2                     -2
10                          NA                     NA                     NA
# ℹ 2,801 more rows
# ℹ 7 more variables: M070handeldiff3_4tierwohl <dbl>,
#   M070handeldiff3_5vielfalt <dbl>, M070handeldiff3_6vetrauen <dbl>,
#   M070handeldiff3_7nachhaltig <dbl>, M070handeldiff3_8gesund <dbl>,
#   M070handeldiff3_9kauf <dbl>, M070handeldiff3_10trends <dbl>
…
Variablen (Spalten) haben eine feste Reihenfolge und Position in einem Datensatz. Ihr könnt eine Spalte daher nicht nur über ihren Namen, sondern auch über ihre Position ansprechen.

Welchen Wertebereich hat eine Variable?

glimpse() ist super, um schnell einen Eindruck zu bekommen, aber es zeigt euch nur die ersten Werte. Wenn ihr wirklich wissen wollt, welche Ausprägungen vorkommen, müsst ihr gezielt nachsehen.

Nehmen wir die Variable q001hheinkauf. Sie gehört zur Frage, ob die teilnehmende Person für den Lebensmitteleinkauf hauptverantwortlich ist oder ob die Aufgabe mit einer anderen Person geteilt wird. Im Codebuch zur Umfrage lesen wir nach, dass “1” für “Ich selbst und eine andere Person” steht, während “2” für “Hauptsächlich ich selbst” steht. Der Wert “0” stünde für “Fast immer eine andere Person”. Aber kommen wirklich nur diese Werte vor? Oder kommen überhaupt alle vor?

Zuerst können wir uns die Spalte als Tibble ausgeben lassen:

survey |>
  select(q001hheinkauf)

# A tibble: 2,811 × 1
   q001hheinkauf
           <dbl>
 1             2
 2             1
 3             2
 4             2
 5             2
 6             2
 7             2
 8             2
 9             2
10             2
# ℹ 2,801 more rows

Standardmäßig zeigt R dabei nur die ersten 10 Zeilen. Das könnt ihr ändern:

survey |>
  select(q001hheinkauf) |>
  print(n = 20)

# A tibble: 2,811 × 1
   q001hheinkauf
           <dbl>
 1             2
 2             1
 3             2
 4             2
 5             2
 6             2
 7             2
 8             2
 9             2
10             2
11             2
12             1
13             2
14             1
15             2
16             2
17             1
18             1
19             2
20             1
# ℹ 2,791 more rows
…
