2 Arten von Variablen – Hands-On Exploratory Data Analytics
…
Kontinuierliche Variablen

Continuous variables are variables that could take any value (perhaps within some range). (Huntington-Klein 2026)

Im Umfragedatensatz fragt eine Frage nach der Eingabe eines Preises, den die Teilnehmenden bereit wären, für einen Liter Milch einer vorgegebenen Marke zu bezahlen:

“Geben Sie für die 3 Marken bitte den Preis an, den Sie für angemessen halten und bei dem Sie zugreifen würden! Als Dezimaltrennzeichen verwenden Sie bitte das Komma.”

Schauen wir auf ein paar Beobachtungen. Wie sehen die Antworten aus?

survey |>
  select(u013pzahl_1weihen)

# A tibble: 2,811 × 1
   u013pzahl_1weihen
               <dbl>
 1              1.49
 2             NA   
 3             NA   
 4             NA   
 5             NA   
 6             NA   
 7             NA   
 8             NA   
 9            150   
10             NA   
# ℹ 2,801 more rows
…
Der Datentyp ist <dbl> (double). Das passt zu Dezimalzahlen und ist daher typisch für kontinuierliche Variablen.

Viele Werte sind NA – es fehlen also Angaben. Später müssen wir klären, warum Werte fehlen und wie wir damit umgehen.

Manchmal seht ihr sehr ungewöhnliche Werte (z. B. 150 €). Das sind oft Ausreißer – z. B. durch Tippfehler.

Fehlende Werte („NA“) kurz behandeln

Für einen ersten Überblick können wir fehlende Werte herausfiltern (auch wenn das nicht immer die richtige Entscheidung für eine echte Analyse ist). Das geht mit drop_na():

survey |>
  select(u013pzahl_1weihen) |>
  drop_na()

# A tibble: 231 × 1
   u013pzahl_1weihen
               <dbl>
 1              1.49
 2            150   
 3              1.19
 4              3   
 5              2   
 6              1.6 
 7              1.09
 8              3   
 9              1.8 
10              2.2 
# ℹ 221 more rows

Jetzt sehen wir mehr „echte“ Preise. Für kontinuierliche Variablen ist typisch: Es gibt keine feste Liste an Ausprägungen, sondern (theoretisch) unendlich viele Werte auf einem Kontinuum. Das merkt ihr auch daran, dass distinct() bei solchen Variablen schnell sehr viele unterschiedliche Werte liefern kann:

survey |>
  select(u013pzahl_1weihen) |>
  drop_na() |>
  distinct()

# A tibble: 48 × 1
   u013pzahl_1weihen
               <dbl>
 1              1.49
 2            150   
 3              1.19
 4              3   
 5              2   
 6              1.6 
 7              1.09
 8              1.8 
 9              2.2 
10            120   
# ℹ 38 more rows
…
\[
\tilde{x} =
\begin{cases}
x_{\left(\frac{n+1}{2}\right)}, & \text{falls } n \text{ ungerade ist},\\[6pt]
\frac{1}{2}\left(x_{\left(\frac{n}{2}\right)} + x_{\left(\frac{n}{2}+1\right)}\right), & \text{falls } n \text{ gerade ist}.
\end{cases}
\]

Was also tun? Da wir nicht sicher wissen, welche Eingabe „eigentlich gemeint“ war, entscheiden wir uns hier pragmatisch für ein Filtern unplausibler Werte. Schauen wir zuerst, welche extrem hohen Werte vorkommen:

survey |>
  select(u013pzahl_1weihen) |>
  arrange(desc(u013pzahl_1weihen))

# A tibble: 2,811 × 1
   u013pzahl_1weihen
               <dbl>
 1               150
 2               150
 3               129
 4               120
 5               109
 6                50
 7                 7
 8                 4
 9                 4
10                 3
# ℹ 2,801 more rows
…
# A tibble: 1 × 1
  avg_price
      <dbl>
1      1.56

Gibt es auch Ausreißer nach unten?

survey |>
  select(u013pzahl_1weihen) |>
  arrange(u013pzahl_1weihen)

# A tibble: 2,811 × 1
   u013pzahl_1weihen
               <dbl>
 1              0   
 2              0   
 3              0   
 4              0.09
 5              0.89
 6              0.95
 7              0.99
 8              0.99
 9              0.99
10              0.99
# ℹ 2,801 more rows
…
Anzahl Käufe pro Monat

Anzahl verkaufter Produkte

Zählvariablen können sehr viele Ausprägungen haben und werden dann in der explorativen Analyse oft ähnlich behandelt wie kontinuierliche Variablen. Trotzdem ist das Messniveau ein anderes: Es sind diskrete, abzählbare Werte.

Beispiel: Alter aus dem Geburtsjahr ableiten

Das Alter wurde nicht direkt gefragt, steckt aber indirekt in der Frage: „In welchem Jahr sind Sie geboren?“.

survey |> 
  select(q002geburt)

# A tibble: 2,811 × 1
   q002geburt
        <dbl>
 1       1970
 2       1990
 3       1963
 4       1989
 5       1965
 6       1957
 7       1960
 8       1984
 9       1974
10       1954
# ℹ 2,801 more rows

Wenn wir das Geburtsjahr kennen, können wir das Alter (mit kleiner Restunsicherheit) schätzen:

survey |>
  transmute(age = 2025 - q002geburt)

# A tibble: 2,811 × 1
     age
   <dbl>
 1    55
 2    35
 3    62
 4    36
 5    60
 6    68
 7    65
 8    41
 9    51
10    71
# ℹ 2,801 more rows

Wie viele unterschiedliche Alterswerte gibt es?

survey |>
  transmute(age = 2025 - q002geburt) |>
  distinct()

# A tibble: 61 × 1
     age
   <dbl>
 1    55
 2    35
 3    62
 4    36
 5    60
 6    68
 7    65
 8    41
 9    51
10    71
# ℹ 51 more rows
…
Es signalisiert klar: „Hier sind nur ganze Zahlen sinnvoll“ – das hilft auch anderen, die den Datensatz später nutzen.

Wandeln wir das Alter in int um und speichern es als neue Variable im Tibble:

survey <- 
  survey |>
  mutate(Q002age = as.integer(2025 - q002geburt), .after = "q002geburt")

Mit mutate() erzeugen wir eine neue Spalte. as.integer() klappt nur, wenn der Wert als ganze Zahl darstellbar ist; sonst gibt es einen Fehler. Mit .after steuern wir die Position der neuen Variable.

survey |>
  select(q002geburt, Q002age)

# A tibble: 2,811 × 2
   q002geburt Q002age
        <dbl>   <int>
 1       1970      55
 2       1990      35
 3       1963      62
 4       1989      36
 5       1965      60
 6       1957      68
 7       1960      65
 8       1984      41
 9       1974      51
10       1954      71
# ℹ 2,801 more rows
…
Die Interpretation ist hier: „Hat Person X diese Option gewählt – ja/nein?“.

2.4 Qualitative Variablen

Qualitative variables are a sort of catch-all category for everything else. They aren’t numeric in nature, but also they’re not categorical. The text of a Washington Post headline is an example of a qualitative variable. (Huntington-Klein 2026)

Qualitative Variablen sind häufig Freitext: Antworten, die nicht in eine feste Kategorienliste passen. In Umfragen sind das oft „Other“-Felder. In unserem Datensatz findet ihr solche Spalten z. B. an Namen wie …_other:

survey |>
  select(v041nofleisch_other)

# A tibble: 2,811 × 1
   v041nofleisch_other
   <chr>              
 1 <NA>               
 2 <NA>               
 3 <NA>               
 4 <NA>               
 5 <NA>               
 6 <NA>               
 7 <NA>               
 8 <NA>               
 9 <NA>               
10 <NA>               
# ℹ 2,801 more rows
…
